Data;Hora;IP cliente;log
18/03/2020;08:53:14:53;127.0.0.1;Primeiro login no sistema - Arquivo de LOG criado
18/03/2020;08:53:19:67;127.0.0.1;Acessou programa principal
18/03/2020;08:53:21:41;127.0.0.1;Acessou programa principal
18/03/2020;08:53:23:88;127.0.0.1;Acessou programa principal
18/03/2020;08:53:37:60;127.0.0.1;Acessou programa principal
18/03/2020;09:05:04:91;127.0.0.1;Acessou programa principal
18/03/2020;09:05:08:65;127.0.0.1;Acessou programa principal
18/03/2020;09:05:10:42;127.0.0.1;Acessou programa principal
18/03/2020;09:05:19:66;127.0.0.1;Acessou programa principal
18/03/2020;09:05:41:67;127.0.0.1;Acessou programa principal
18/03/2020;09:05:43:66;127.0.0.1;Acessou programa principal
18/03/2020;09:05:50:29;127.0.0.1;Acessou programa principal
18/03/2020;09:07:36:79;127.0.0.1;Acessou programa principal
18/03/2020;09:07:41:33;127.0.0.1;Acessou programa principal
18/03/2020;09:07:42:71;127.0.0.1;Acessou programa principal
18/03/2020;09:07:43:92;127.0.0.1;Acessou programa principal
18/03/2020;09:10:05:49;127.0.0.1;Acessou programa principal
18/03/2020;09:10:08:60;127.0.0.1;Acessou programa principal
18/03/2020;09:10:10:09;127.0.0.1;Acessou programa principal
18/03/2020;09:10:25:20;127.0.0.1;Acessou programa principal
18/03/2020;09:10:25:22;127.0.0.1;Acessou programa principal
18/03/2020;09:10:47:64;127.0.0.1;Acessou programa principal
18/03/2020;09:10:52:11;127.0.0.1;Acessou programa principal
18/03/2020;09:10:58:48;127.0.0.1;Acessou programa principal
18/03/2020;09:10:58:96;127.0.0.1;Acessou programa principal
18/03/2020;09:10:59:37;127.0.0.1;Acessou programa principal
18/03/2020;09:10:59:72;127.0.0.1;Acessou programa principal
18/03/2020;09:11:00:06;127.0.0.1;Acessou programa principal
18/03/2020;09:11:14:43;127.0.0.1;Acessou programa principal
18/03/2020;09:11:46:75;127.0.0.1;Acessou programa principal
18/03/2020;09:11:49:94;127.0.0.1;Acessou programa principal
18/03/2020;09:11:51:64;127.0.0.1;Acessou programa principal
18/03/2020;09:12:38:65;127.0.0.1;Acessou programa principal
18/03/2020;09:13:33:28;127.0.0.1;Acessou programa principal
18/03/2020;09:14:47:95;127.0.0.1;Acessou programa principal
18/03/2020;09:15:15:59;127.0.0.1;Acessou programa principal
18/03/2020;09:15:20:51;127.0.0.1;Acessou programa principal
18/03/2020;09:15:22:66;127.0.0.1;Acessou programa principal
18/03/2020;09:15:33:72;127.0.0.1;Acessou programa principal
18/03/2020;09:15:33:74;127.0.0.1;Acessou programa principal
18/03/2020;09:15:41:40;127.0.0.1;Acessou programa principal
18/03/2020;09:15:44:69;127.0.0.1;Acessou programa principal
18/03/2020;09:15:46:98;127.0.0.1;Acessou programa principal
18/03/2020;09:16:55:42;127.0.0.1;Acessou programa principal
18/03/2020;09:18:08:20;127.0.0.1;Acessou programa principal
18/03/2020;09:18:12:04;127.0.0.1;Acessou programa principal
18/03/2020;09:18:13:23;127.0.0.1;Acessou programa principal
18/03/2020;09:34:56:22;127.0.0.1;Acessou programa principal
18/03/2020;09:35:03:12;127.0.0.1;Acessou programa principal
18/03/2020;09:35:05:46;127.0.0.1;Acessou programa principal
18/03/2020;09:35:20:39;127.0.0.1;Acessou programa principal
18/03/2020;09:35:34:77;127.0.0.1;Acessou programa principal
18/03/2020;10:53:47:08;127.0.0.1;Acessou programa principal
18/03/2020;10:54:03:37;127.0.0.1;Acessou programa principal
18/03/2020;10:54:06:64;127.0.0.1;Acessou programa principal
18/03/2020;10:54:08:71;127.0.0.1;Acessou programa principal
18/03/2020;10:54:18:08;127.0.0.1;Acessou programa principal
18/03/2020;10:54:23:07;127.0.0.1;Acessou programa principal
18/03/2020;10:55:20:11;127.0.0.1;Acessou programa principal
18/03/2020;10:55:23:71;127.0.0.1;Acessou programa principal
18/03/2020;10:55:25:14;127.0.0.1;Acessou programa principal
18/03/2020;10:55:28:24;127.0.0.1;Acessou programa principal
18/03/2020;10:55:29:87;127.0.0.1;Acessou programa principal
18/03/2020;11:03:40:55;127.0.0.1;Acessou programa principal
18/03/2020;11:03:46:74;127.0.0.1;Acessou programa principal
18/03/2020;11:03:49:44;127.0.0.1;Acessou programa principal
18/03/2020;11:03:50:84;127.0.0.1;Acessou programa principal
18/03/2020;11:04:06:00;127.0.0.1;Acessou programa principal
18/03/2020;11:04:43:95;127.0.0.1;Acessou programa principal
18/03/2020;11:06:07:15;127.0.0.1;Acessou programa principal
18/03/2020;11:06:11:34;127.0.0.1;Acessou programa principal
18/03/2020;11:06:14:26;127.0.0.1;Acessou programa principal
18/03/2020;11:06:15:71;127.0.0.1;Acessou programa principal
18/03/2020;11:06:24:06;127.0.0.1;Acessou programa principal
18/03/2020;11:07:11:19;127.0.0.1;Acessou programa principal
18/03/2020;11:07:21:38;127.0.0.1;Acessou programa principal
18/03/2020;11:07:27:79;127.0.0.1;Acessou programa principal
18/03/2020;11:09:05:24;127.0.0.1;Acessou programa principal
18/03/2020;11:09:20:05;127.0.0.1;Acessou programa principal
18/03/2020;11:09:35:47;127.0.0.1;Acessou programa principal
18/03/2020;11:10:26:53;127.0.0.1;Acessou programa principal
18/03/2020;11:10:29:91;127.0.0.1;Acessou programa principal
18/03/2020;11:10:31:52;127.0.0.1;Acessou programa principal
18/03/2020;11:10:32:74;127.0.0.1;Acessou programa principal
18/03/2020;11:10:41:45;127.0.0.1;Acessou programa principal
18/03/2020;11:10:44:80;127.0.0.1;Acessou programa principal
18/03/2020;11:10:55:87;127.0.0.1;Acessou programa principal
18/03/2020;11:12:02:66;127.0.0.1;Acessou programa principal
18/03/2020;11:12:06:20;127.0.0.1;Acessou programa principal
18/03/2020;11:12:14:24;127.0.0.1;Acessou programa principal
18/03/2020;11:12:17:89;127.0.0.1;Acessou programa principal
18/03/2020;11:12:25:45;127.0.0.1;Acessou programa principal
18/03/2020;11:12:53:76;127.0.0.1;Acessou programa principal
18/03/2020;11:13:03:83;127.0.0.1;Acessou programa principal
18/03/2020;11:24:39:22;127.0.0.1;Acessou programa principal
18/03/2020;11:24:42:61;127.0.0.1;Acessou programa principal
18/03/2020;11:24:44:14;127.0.0.1;Acessou programa principal
18/03/2020;11:24:45:33;127.0.0.1;Acessou programa principal
18/03/2020;11:24:53:38;127.0.0.1;Acessou programa principal
18/03/2020;11:26:47:07;127.0.0.1;Acessou programa principal
18/03/2020;11:26:50:18;127.0.0.1;Acessou programa principal
18/03/2020;11:26:52:00;127.0.0.1;Acessou programa principal
18/03/2020;11:26:52:92;127.0.0.1;Acessou programa principal
18/03/2020;11:26:57:59;127.0.0.1;Acessou programa principal
18/03/2020;11:29:25:40;127.0.0.1;Acessou programa principal
18/03/2020;11:29:28:82;127.0.0.1;Acessou programa principal
18/03/2020;11:29:30:36;127.0.0.1;Acessou programa principal
18/03/2020;11:29:32:01;127.0.0.1;Acessou programa principal
18/03/2020;11:29:35:74;127.0.0.1;Acessou programa principal
18/03/2020;11:33:36:71;127.0.0.1;Acessou programa principal
18/03/2020;11:33:46:49;127.0.0.1;Acessou programa principal
18/03/2020;11:34:16:70;127.0.0.1;Acessou programa principal
18/03/2020;11:34:23:70;127.0.0.1;Acessou programa principal
18/03/2020;11:35:09:38;127.0.0.1;Acessou programa principal
18/03/2020;11:35:20:89;127.0.0.1;Acessou programa principal
18/03/2020;11:36:58:91;127.0.0.1;Acessou programa principal
18/03/2020;11:37:03:70;127.0.0.1;Acessou programa principal
18/03/2020;11:37:05:30;127.0.0.1;Acessou programa principal
18/03/2020;11:37:06:32;127.0.0.1;Acessou programa principal
18/03/2020;11:37:19:72;127.0.0.1;Acessou programa principal
18/03/2020;11:38:13:56;127.0.0.1;Acessou programa principal
18/03/2020;11:38:16:56;127.0.0.1;Acessou programa principal
18/03/2020;11:38:18:39;127.0.0.1;Acessou programa principal
18/03/2020;11:38:20:09;127.0.0.1;Acessou programa principal
18/03/2020;11:38:31:08;127.0.0.1;Acessou programa principal
18/03/2020;11:39:42:52;127.0.0.1;Acessou programa principal
18/03/2020;11:39:45:70;127.0.0.1;Acessou programa principal
18/03/2020;11:39:47:37;127.0.0.1;Acessou programa principal
18/03/2020;11:39:49:15;127.0.0.1;Acessou programa principal
18/03/2020;11:39:58:33;127.0.0.1;Acessou programa principal
18/03/2020;11:40:11:84;127.0.0.1;Acessou programa principal
18/03/2020;11:40:28:61;127.0.0.1;Acessou programa principal
18/03/2020;11:40:36:18;127.0.0.1;Acessou programa principal
18/03/2020;11:40:37:46;127.0.0.1;Acessou programa principal
18/03/2020;11:40:39:12;127.0.0.1;Acessou programa principal
18/03/2020;11:40:47:84;127.0.0.1;Acessou programa principal
18/03/2020;11:40:52:04;127.0.0.1;Acessou programa principal
18/03/2020;11:41:05:30;127.0.0.1;Acessou programa principal
18/03/2020;11:41:20:48;127.0.0.1;Acessou programa principal
18/03/2020;11:41:35:27;127.0.0.1;Acessou programa principal
18/03/2020;11:41:45:26;127.0.0.1;Acessou programa principal
18/03/2020;11:42:09:84;127.0.0.1;Acessou programa principal
18/03/2020;11:51:07:28;127.0.0.1;Acessou programa principal
18/03/2020;11:51:10:95;127.0.0.1;Acessou programa principal
18/03/2020;11:51:12:78;127.0.0.1;Acessou programa principal
18/03/2020;11:51:14:49;127.0.0.1;Acessou programa principal
18/03/2020;11:51:46:91;127.0.0.1;Acessou programa principal
18/03/2020;11:51:50:03;127.0.0.1;Acessou programa principal
18/03/2020;11:51:51:92;127.0.0.1;Acessou programa principal
18/03/2020;11:51:53:33;127.0.0.1;Acessou programa principal
18/03/2020;11:52:20:16;127.0.0.1;Acessou programa principal
18/03/2020;11:52:24:29;127.0.0.1;Acessou programa principal
18/03/2020;11:52:30:64;127.0.0.1;Acessou programa principal
18/03/2020;11:52:33:85;127.0.0.1;Acessou programa principal
18/03/2020;11:52:35:41;127.0.0.1;Acessou programa principal
18/03/2020;11:52:36:98;127.0.0.1;Acessou programa principal
18/03/2020;11:52:57:62;127.0.0.1;Acessou programa principal
18/03/2020;11:55:53:43;127.0.0.1;Acessou programa principal
18/03/2020;11:56:02:58;127.0.0.1;Acessou programa principal
18/03/2020;11:56:04:71;127.0.0.1;Acessou programa principal
18/03/2020;11:56:08:23;127.0.0.1;Acessou programa principal
18/03/2020;11:56:23:56;127.0.0.1;Acessou programa principal
18/03/2020;11:57:09:40;127.0.0.1;Acessou programa principal
18/03/2020;11:57:12:38;127.0.0.1;Acessou programa principal
18/03/2020;11:57:14:37;127.0.0.1;Acessou programa principal
18/03/2020;11:57:15:37;127.0.0.1;Acessou programa principal
18/03/2020;11:57:24:68;127.0.0.1;Acessou programa principal
18/03/2020;11:58:04:82;127.0.0.1;Acessou programa principal
18/03/2020;11:58:19:72;127.0.0.1;Acessou programa principal
18/03/2020;11:58:51:62;127.0.0.1;Acessou programa principal
18/03/2020;11:58:54:43;127.0.0.1;Acessou programa principal
18/03/2020;11:58:56:09;127.0.0.1;Acessou programa principal
18/03/2020;11:58:57:15;127.0.0.1;Acessou programa principal
18/03/2020;11:59:04:82;127.0.0.1;Acessou programa principal
18/03/2020;11:59:43:54;127.0.0.1;Acessou programa principal
18/03/2020;11:59:46:87;127.0.0.1;Acessou programa principal
18/03/2020;11:59:52:37;127.0.0.1;Acessou programa principal
18/03/2020;11:59:53:49;127.0.0.1;Acessou programa principal
18/03/2020;12:00:01:33;127.0.0.1;Acessou programa principal
18/03/2020;12:00:28:00;127.0.0.1;Acessou programa principal
18/03/2020;12:00:40:69;127.0.0.1;Acessou programa principal
18/03/2020;12:01:13:03;127.0.0.1;Acessou programa principal
18/03/2020;12:01:29:88;127.0.0.1;Acessou programa principal
18/03/2020;12:02:50:73;127.0.0.1;Acessou programa principal
18/03/2020;12:02:54:62;127.0.0.1;Acessou programa principal
18/03/2020;12:02:55:94;127.0.0.1;Acessou programa principal
18/03/2020;12:03:00:32;127.0.0.1;Acessou programa principal
18/03/2020;12:03:11:56;127.0.0.1;Acessou programa principal
18/03/2020;12:03:14:73;127.0.0.1;Acessou programa principal
18/03/2020;12:03:29:05;127.0.0.1;Acessou programa principal
18/03/2020;12:03:39:03;127.0.0.1;Acessou programa principal
18/03/2020;12:05:21:42;127.0.0.1;Acessou programa principal
18/03/2020;12:05:24:81;127.0.0.1;Acessou programa principal
18/03/2020;12:05:26:36;127.0.0.1;Acessou programa principal
18/03/2020;12:05:29:14;127.0.0.1;Acessou programa principal
18/03/2020;12:06:17:33;127.0.0.1;Acessou programa principal
18/03/2020;12:15:43:94;127.0.0.1;Acessou programa principal
18/03/2020;12:15:46:66;127.0.0.1;Acessou programa principal
18/03/2020;12:15:48:53;127.0.0.1;Acessou programa principal
18/03/2020;12:15:50:62;127.0.0.1;Acessou programa principal
18/03/2020;12:16:38:52;127.0.0.1;Acessou programa principal
18/03/2020;12:16:41:29;127.0.0.1;Acessou programa principal
18/03/2020;12:16:42:60;127.0.0.1;Acessou programa principal
18/03/2020;12:16:44:05;127.0.0.1;Acessou programa principal
18/03/2020;12:17:14:44;127.0.0.1;Acessou programa principal
18/03/2020;12:18:31:87;127.0.0.1;Acessou programa principal
18/03/2020;12:18:35:27;127.0.0.1;Acessou programa principal
18/03/2020;12:18:37:31;127.0.0.1;Acessou programa principal
18/03/2020;12:18:45:59;127.0.0.1;Acessou programa principal
18/03/2020;12:19:07:19;127.0.0.1;Acessou programa principal
18/03/2020;12:19:16:84;127.0.0.1;Acessou programa principal
18/03/2020;12:19:19:09;127.0.0.1;Acessou programa principal
18/03/2020;12:19:22:38;127.0.0.1;Acessou programa principal
18/03/2020;12:19:23:36;127.0.0.1;Acessou programa principal
18/03/2020;12:19:26:06;127.0.0.1;Acessou programa principal
18/03/2020;12:19:26:69;127.0.0.1;Acessou programa principal
18/03/2020;12:19:27:13;127.0.0.1;Acessou programa principal
18/03/2020;12:22:56:99;127.0.0.1;Acessou programa principal
18/03/2020;12:23:00:34;127.0.0.1;Acessou programa principal
18/03/2020;12:23:01:96;127.0.0.1;Acessou programa principal
18/03/2020;12:23:03:24;127.0.0.1;Acessou programa principal
18/03/2020;12:26:15:20;127.0.0.1;Acessou programa principal
18/03/2020;12:26:18:36;127.0.0.1;Acessou programa principal
18/03/2020;12:26:19:43;127.0.0.1;Acessou programa principal
18/03/2020;12:26:20:67;127.0.0.1;Acessou programa principal
18/03/2020;12:26:36:66;127.0.0.1;Acessou programa principal
18/03/2020;12:26:39:53;127.0.0.1;Acessou programa principal
18/03/2020;12:26:40:97;127.0.0.1;Acessou programa principal
18/03/2020;12:26:41:93;127.0.0.1;Acessou programa principal
18/03/2020;12:27:04:65;127.0.0.1;Acessou programa principal
18/03/2020;12:27:11:69;127.0.0.1;Acessou programa principal
18/03/2020;13:03:36:09;127.0.0.1;Acessou programa principal
18/03/2020;13:03:40:03;127.0.0.1;Acessou programa principal
18/03/2020;13:03:42:07;127.0.0.1;Acessou programa principal
18/03/2020;13:03:45:59;127.0.0.1;Acessou programa principal
18/03/2020;13:04:09:42;127.0.0.1;Acessou programa principal
18/03/2020;13:04:14:25;127.0.0.1;Acessou programa principal
18/03/2020;13:04:16:38;127.0.0.1;Acessou programa principal
18/03/2020;13:04:17:16;127.0.0.1;Acessou programa principal
18/03/2020;13:05:34:30;127.0.0.1;Acessou programa principal
18/03/2020;13:05:42:61;127.0.0.1;Acessou programa principal
18/03/2020;13:05:44:52;127.0.0.1;Acessou programa principal
18/03/2020;13:05:47:87;127.0.0.1;Acessou programa principal
18/03/2020;13:06:30:82;127.0.0.1;Acessou programa principal
18/03/2020;13:08:40:04;127.0.0.1;Acessou programa principal
18/03/2020;13:08:45:78;127.0.0.1;Acessou programa principal
18/03/2020;13:08:47:19;127.0.0.1;Acessou programa principal
18/03/2020;13:08:59:15;127.0.0.1;Acessou programa principal
18/03/2020;13:09:00:47;127.0.0.1;Acessou programa principal
18/03/2020;13:09:01:80;127.0.0.1;Acessou programa principal
18/03/2020;13:09:03:89;127.0.0.1;Acessou programa principal
18/03/2020;13:09:11:56;127.0.0.1;Acessou programa principal
18/03/2020;13:11:20:45;127.0.0.1;Acessou programa principal
18/03/2020;13:11:24:09;127.0.0.1;Acessou programa principal
18/03/2020;13:11:25:54;127.0.0.1;Acessou programa principal
18/03/2020;13:11:26:83;127.0.0.1;Acessou programa principal
18/03/2020;13:11:34:08;127.0.0.1;Acessou programa principal
18/03/2020;13:11:36:65;127.0.0.1;Acessou programa principal
18/03/2020;13:11:37:76;127.0.0.1;Acessou programa principal
18/03/2020;13:11:52:24;127.0.0.1;Acessou programa principal
18/03/2020;13:12:04:59;127.0.0.1;Acessou programa principal
18/03/2020;13:12:05:09;127.0.0.1;Acessou programa principal
18/03/2020;13:12:05:43;127.0.0.1;Acessou programa principal
18/03/2020;13:12:06:10;127.0.0.1;Acessou programa principal
18/03/2020;13:12:06:49;127.0.0.1;Acessou programa principal
18/03/2020;13:12:06:80;127.0.0.1;Acessou programa principal
18/03/2020;13:12:07:13;127.0.0.1;Acessou programa principal
18/03/2020;13:12:07:42;127.0.0.1;Acessou programa principal
18/03/2020;13:12:07:74;127.0.0.1;Acessou programa principal
18/03/2020;13:12:08:64;127.0.0.1;Acessou programa principal
18/03/2020;13:12:33:27;127.0.0.1;Acessou programa principal
18/03/2020;13:12:36:45;127.0.0.1;Acessou programa principal
18/03/2020;13:12:38:60;127.0.0.1;Acessou programa principal
18/03/2020;13:12:40:10;127.0.0.1;Acessou programa principal
18/03/2020;13:14:26:33;127.0.0.1;Acessou programa principal
18/03/2020;13:14:30:05;127.0.0.1;Acessou programa principal
18/03/2020;13:14:31:61;127.0.0.1;Acessou programa principal
18/03/2020;13:14:32:89;127.0.0.1;Acessou programa principal
18/03/2020;13:16:02:93;127.0.0.1;Acessou programa principal
18/03/2020;13:16:06:75;127.0.0.1;Acessou programa principal
18/03/2020;13:16:08:52;127.0.0.1;Acessou programa principal
18/03/2020;13:16:10:43;127.0.0.1;Acessou programa principal
18/03/2020;13:16:46:16;127.0.0.1;Acessou programa principal
18/03/2020;13:17:07:61;127.0.0.1;Acessou programa principal
18/03/2020;13:17:13:00;127.0.0.1;Acessou programa principal
18/03/2020;13:17:15:08;127.0.0.1;Acessou programa principal
18/03/2020;13:17:16:97;127.0.0.1;Acessou programa principal
18/03/2020;13:17:21:22;127.0.0.1;Acessou programa principal
18/03/2020;13:17:23:60;127.0.0.1;Acessou programa principal
18/03/2020;13:17:27:10;127.0.0.1;Acessou programa principal
18/03/2020;13:17:30:12;127.0.0.1;Acessou programa principal
18/03/2020;13:17:47:04;127.0.0.1;Acessou programa principal
18/03/2020;13:17:47:97;127.0.0.1;Acessou programa principal
18/03/2020;13:17:49:94;127.0.0.1;Acessou programa principal
18/03/2020;13:17:52:92;127.0.0.1;Acessou programa principal
18/03/2020;13:18:00:14;127.0.0.1;Acessou programa principal
18/03/2020;13:18:11:13;127.0.0.1;Acessou programa principal
18/03/2020;13:18:14:16;127.0.0.1;Acessou programa principal
18/03/2020;13:18:16:16;127.0.0.1;Acessou programa principal
18/03/2020;13:18:52:05;127.0.0.1;Acessou programa principal
18/03/2020;13:19:03:61;127.0.0.1;Acessou programa principal
18/03/2020;13:19:35:77;127.0.0.1;Acessou programa principal
18/03/2020;13:19:57:26;127.0.0.1;Acessou programa principal
18/03/2020;13:20:54:26;127.0.0.1;Acessou programa principal
18/03/2020;13:20:59:39;127.0.0.1;Acessou programa principal
18/03/2020;13:21:00:61;127.0.0.1;Acessou programa principal
18/03/2020;13:21:01:59;127.0.0.1;Acessou programa principal
18/03/2020;13:21:04:64;127.0.0.1;Acessou programa principal
18/03/2020;13:21:12:91;127.0.0.1;Acessou programa principal
18/03/2020;13:31:28:81;127.0.0.1;Acessou programa principal
18/03/2020;13:31:32:58;127.0.0.1;Acessou programa principal
18/03/2020;13:31:34:15;127.0.0.1;Acessou programa principal
18/03/2020;13:31:46:05;127.0.0.1;Acessou programa principal
18/03/2020;13:32:10:07;127.0.0.1;Acessou programa principal
18/03/2020;13:36:06:62;127.0.0.1;Acessou programa principal
18/03/2020;13:36:09:79;127.0.0.1;Acessou programa principal
18/03/2020;13:36:11:12;127.0.0.1;Acessou programa principal
18/03/2020;13:36:18:19;127.0.0.1;Acessou programa principal
18/03/2020;13:37:09:22;127.0.0.1;Acessou programa principal
18/03/2020;13:37:12:52;127.0.0.1;Acessou programa principal
18/03/2020;13:37:13:96;127.0.0.1;Acessou programa principal
18/03/2020;13:37:15:36;127.0.0.1;Acessou programa principal
18/03/2020;13:37:19:95;127.0.0.1;Acessou programa principal
18/03/2020;13:37:24:18;127.0.0.1;Acessou programa principal
18/03/2020;13:37:55:58;127.0.0.1;Acessou programa principal
18/03/2020;13:38:35:08;127.0.0.1;Acessou programa principal
18/03/2020;13:38:41:51;127.0.0.1;Acessou programa principal
18/03/2020;13:38:43:03;127.0.0.1;Acessou programa principal
18/03/2020;13:38:43:57;127.0.0.1;Acessou programa principal
18/03/2020;13:38:43:76;127.0.0.1;Acessou programa principal
18/03/2020;13:38:44:12;127.0.0.1;Acessou programa principal
18/03/2020;13:38:45:20;127.0.0.1;Acessou programa principal
18/03/2020;13:38:46:21;127.0.0.1;Acessou programa principal
18/03/2020;13:38:48:06;127.0.0.1;Acessou programa principal
18/03/2020;13:38:53:94;127.0.0.1;Acessou programa principal
18/03/2020;13:38:56:01;127.0.0.1;Acessou programa principal
18/03/2020;13:39:31:31;127.0.0.1;Acessou programa principal
18/03/2020;13:39:36:64;127.0.0.1;Acessou programa principal
18/03/2020;13:39:38:00;127.0.0.1;Acessou programa principal
18/03/2020;13:39:38:92;127.0.0.1;Acessou programa principal
18/03/2020;13:39:39:95;127.0.0.1;Acessou programa principal
18/03/2020;13:39:40:83;127.0.0.1;Acessou programa principal
18/03/2020;13:39:42:70;127.0.0.1;Acessou programa principal
18/03/2020;13:39:43:51;127.0.0.1;Acessou programa principal
18/03/2020;13:39:45:44;127.0.0.1;Acessou programa principal
18/03/2020;13:39:46:18;127.0.0.1;Acessou programa principal
18/03/2020;13:39:47:55;127.0.0.1;Acessou programa principal
18/03/2020;13:39:48:51;127.0.0.1;Acessou programa principal
18/03/2020;13:39:50:33;127.0.0.1;Acessou programa principal
18/03/2020;13:39:51:10;127.0.0.1;Acessou programa principal
18/03/2020;13:39:52:55;127.0.0.1;Acessou programa principal
18/03/2020;13:39:53:98;127.0.0.1;Acessou programa principal
18/03/2020;13:39:55:13;127.0.0.1;Acessou programa principal
18/03/2020;13:39:56:18;127.0.0.1;Acessou programa principal
18/03/2020;13:40:03:33;127.0.0.1;Acessou programa principal
18/03/2020;13:40:25:47;127.0.0.1;Acessou programa principal
18/03/2020;13:41:38:47;127.0.0.1;Acessou programa principal
18/03/2020;13:41:42:21;127.0.0.1;Acessou programa principal
18/03/2020;13:41:43:88;127.0.0.1;Acessou programa principal
18/03/2020;13:41:59:94;127.0.0.1;Acessou programa principal
18/03/2020;13:42:24:49;127.0.0.1;Acessou programa principal
18/03/2020;13:42:26:86;127.0.0.1;Acessou programa principal
18/03/2020;14:21:12:13;127.0.0.1;Acessou programa principal
18/03/2020;14:21:15:69;127.0.0.1;Acessou programa principal
18/03/2020;14:21:17:22;127.0.0.1;Acessou programa principal
18/03/2020;14:21:18:65;127.0.0.1;Acessou programa principal
18/03/2020;14:21:23:75;127.0.0.1;Acessou programa principal
18/03/2020;14:21:27:07;127.0.0.1;Acessou programa principal
18/03/2020;14:23:38:88;127.0.0.1;Acessou programa principal
18/03/2020;14:23:42:63;127.0.0.1;Acessou programa principal
18/03/2020;14:23:44:44;127.0.0.1;Acessou programa principal
18/03/2020;14:23:45:78;127.0.0.1;Acessou programa principal
18/03/2020;14:23:50:62;127.0.0.1;Acessou programa principal
18/03/2020;14:23:52:49;127.0.0.1;Acessou programa principal
18/03/2020;14:27:05:31;127.0.0.1;Acessou programa principal
18/03/2020;14:27:08:48;127.0.0.1;Acessou programa principal
18/03/2020;14:27:09:84;127.0.0.1;Acessou programa principal
18/03/2020;14:27:11:09;127.0.0.1;Acessou programa principal
18/03/2020;14:27:14:15;127.0.0.1;Acessou programa principal
18/03/2020;14:27:16:84;127.0.0.1;Acessou programa principal
18/03/2020;14:27:19:92;127.0.0.1;Acessou programa principal
18/03/2020;14:27:41:17;127.0.0.1;Acessou programa principal
18/03/2020;14:28:52:38;127.0.0.1;Acessou programa principal
18/03/2020;14:28:55:77;127.0.0.1;Acessou programa principal
18/03/2020;14:28:57:59;127.0.0.1;Acessou programa principal
18/03/2020;14:29:00:19;127.0.0.1;Acessou programa principal
18/03/2020;14:29:05:97;127.0.0.1;Acessou programa principal
18/03/2020;14:29:12:27;127.0.0.1;Acessou programa principal
18/03/2020;14:29:19:55;127.0.0.1;Acessou programa principal
18/03/2020;14:30:28:18;127.0.0.1;Acessou programa principal
18/03/2020;14:30:33:49;127.0.0.1;Acessou programa principal
18/03/2020;14:30:41:00;127.0.0.1;Acessou programa principal
18/03/2020;14:30:42:63;127.0.0.1;Acessou programa principal
18/03/2020;14:30:45:48;127.0.0.1;Acessou programa principal
18/03/2020;14:30:49:06;127.0.0.1;Acessou programa principal
18/03/2020;14:30:53:27;127.0.0.1;Acessou programa principal
18/03/2020;14:30:53:79;127.0.0.1;Acessou programa principal
18/03/2020;14:30:53:99;127.0.0.1;Acessou programa principal
18/03/2020;14:30:54:17;127.0.0.1;Acessou programa principal
18/03/2020;14:30:54:36;127.0.0.1;Acessou programa principal
18/03/2020;14:31:44:70;127.0.0.1;Acessou programa principal
18/03/2020;14:31:49:28;127.0.0.1;Acessou programa principal
18/03/2020;14:32:17:30;127.0.0.1;Acessou programa principal
18/03/2020;14:32:19:51;127.0.0.1;Acessou programa principal
18/03/2020;14:32:30:65;127.0.0.1;Acessou programa principal
18/03/2020;14:33:12:83;127.0.0.1;Acessou programa principal
18/03/2020;14:33:17:30;127.0.0.1;Acessou programa principal
18/03/2020;14:33:19:00;127.0.0.1;Acessou programa principal
18/03/2020;14:33:20:16;127.0.0.1;Acessou programa principal
18/03/2020;14:33:28:65;127.0.0.1;Acessou programa principal
18/03/2020;14:33:53:65;127.0.0.1;Acessou programa principal
18/03/2020;14:34:35:98;127.0.0.1;Acessou programa principal
18/03/2020;14:34:39:67;127.0.0.1;Acessou programa principal
18/03/2020;14:34:41:66;127.0.0.1;Acessou programa principal
18/03/2020;14:34:45:18;127.0.0.1;Acessou programa principal
18/03/2020;14:34:53:29;127.0.0.1;Acessou programa principal
18/03/2020;14:36:07:89;127.0.0.1;Acessou programa principal
18/03/2020;14:36:12:05;127.0.0.1;Acessou programa principal
18/03/2020;14:36:13:32;127.0.0.1;Acessou programa principal
18/03/2020;14:37:21:55;127.0.0.1;Acessou programa principal
18/03/2020;14:37:25:09;127.0.0.1;Acessou programa principal
18/03/2020;14:37:26:81;127.0.0.1;Acessou programa principal
18/03/2020;14:43:06:05;127.0.0.1;Acessou programa principal
18/03/2020;14:43:11:45;127.0.0.1;Acessou programa principal
18/03/2020;14:43:12:96;127.0.0.1;Acessou programa principal
18/03/2020;14:43:14:54;127.0.0.1;Acessou programa principal
18/03/2020;14:43:18:75;127.0.0.1;Acessou programa principal
18/03/2020;14:44:33:75;127.0.0.1;Acessou programa principal
18/03/2020;14:44:38:15;127.0.0.1;Acessou programa principal
18/03/2020;14:44:40:01;127.0.0.1;Acessou programa principal
18/03/2020;14:52:03:31;127.0.0.1;Acessou programa principal
18/03/2020;14:52:39:28;127.0.0.1;Acessou programa principal
18/03/2020;14:53:54:97;127.0.0.1;Acessou programa principal
18/03/2020;14:56:41:02;127.0.0.1;Acessou programa principal
18/03/2020;15:01:00:34;127.0.0.1;Acessou programa principal
18/03/2020;15:01:11:52;127.0.0.1;Acessou programa principal
18/03/2020;15:01:20:41;127.0.0.1;Acessou programa principal
18/03/2020;15:01:24:56;127.0.0.1;Acessou programa principal
18/03/2020;15:01:26:88;127.0.0.1;Acessou programa principal
18/03/2020;15:03:21:01;127.0.0.1;Acessou programa principal
18/03/2020;15:03:25:47;127.0.0.1;Acessou programa principal
18/03/2020;15:03:27:60;127.0.0.1;Acessou programa principal
18/03/2020;15:05:03:59;127.0.0.1;Acessou programa principal
18/03/2020;15:05:08:63;127.0.0.1;Acessou programa principal
18/03/2020;15:05:10:05;127.0.0.1;Acessou programa principal
18/03/2020;15:05:48:43;127.0.0.1;Acessou programa principal
18/03/2020;15:05:51:84;127.0.0.1;Acessou programa principal
18/03/2020;15:05:53:33;127.0.0.1;Acessou programa principal
18/03/2020;15:17:11:18;127.0.0.1;Acessou programa principal
18/03/2020;15:17:16:35;127.0.0.1;Acessou programa principal
18/03/2020;15:17:17:75;127.0.0.1;Acessou programa principal
18/03/2020;15:27:47:81;127.0.0.1;Acessou programa principal
18/03/2020;15:27:55:17;127.0.0.1;Acessou programa principal
18/03/2020;15:28:35:44;127.0.0.1;Acessou programa principal
18/03/2020;15:28:42:41;127.0.0.1;Acessou programa principal
18/03/2020;15:29:29:74;127.0.0.1;Acessou programa principal
18/03/2020;15:29:35:11;127.0.0.1;Acessou programa principal
18/03/2020;15:29:37:17;127.0.0.1;Acessou programa principal
18/03/2020;15:29:56:27;127.0.0.1;Acessou programa principal
18/03/2020;15:32:40:08;127.0.0.1;Acessou programa principal
18/03/2020;15:33:20:85;127.0.0.1;Acessou programa principal
18/03/2020;15:33:36:57;127.0.0.1;Acessou programa principal
18/03/2020;15:33:40:65;127.0.0.1;Acessou programa principal
18/03/2020;15:33:42:93;127.0.0.1;Acessou programa principal
18/03/2020;15:36:10:39;127.0.0.1;Acessou programa principal
18/03/2020;15:36:58:58;127.0.0.1;Acessou programa principal
18/03/2020;15:37:44:03;127.0.0.1;Acessou programa principal
18/03/2020;15:38:13:01;127.0.0.1;Acessou programa principal
18/03/2020;15:40:07:53;127.0.0.1;Acessou programa principal
18/03/2020;15:40:13:32;127.0.0.1;Acessou programa principal
18/03/2020;15:40:15:05;127.0.0.1;Acessou programa principal
18/03/2020;15:40:19:47;127.0.0.1;Acessou programa principal
18/03/2020;15:40:22:39;127.0.0.1;Acessou programa principal
18/03/2020;15:40:24:90;127.0.0.1;Acessou programa principal
18/03/2020;15:40:25:78;127.0.0.1;Acessou programa principal
18/03/2020;15:40:26:44;127.0.0.1;Acessou programa principal
18/03/2020;15:40:26:81;127.0.0.1;Acessou programa principal
18/03/2020;15:40:27:13;127.0.0.1;Acessou programa principal
18/03/2020;15:40:27:46;127.0.0.1;Acessou programa principal
18/03/2020;15:40:28:92;127.0.0.1;Acessou programa principal
18/03/2020;15:40:29:23;127.0.0.1;Acessou programa principal
18/03/2020;15:40:29:57;127.0.0.1;Acessou programa principal
18/03/2020;15:40:30:19;127.0.0.1;Acessou programa principal
18/03/2020;15:40:58:52;127.0.0.1;Acessou programa principal
18/03/2020;15:41:01:72;127.0.0.1;Acessou programa principal
18/03/2020;15:41:08:62;127.0.0.1;Acessou programa principal
18/03/2020;15:41:09:94;127.0.0.1;Acessou programa principal
18/03/2020;15:41:11:06;127.0.0.1;Acessou programa principal
18/03/2020;15:41:11:57;127.0.0.1;Acessou programa principal
18/03/2020;15:41:11:82;127.0.0.1;Acessou programa principal
18/03/2020;15:41:12:05;127.0.0.1;Acessou programa principal
18/03/2020;15:41:12:40;127.0.0.1;Acessou programa principal
18/03/2020;15:41:12:77;127.0.0.1;Acessou programa principal
18/03/2020;15:41:13:18;127.0.0.1;Acessou programa principal
18/03/2020;15:41:13:89;127.0.0.1;Acessou programa principal
18/03/2020;15:41:14:39;127.0.0.1;Acessou programa principal
18/03/2020;15:41:14:90;127.0.0.1;Acessou programa principal
18/03/2020;15:41:15:39;127.0.0.1;Acessou programa principal
18/03/2020;15:41:15:90;127.0.0.1;Acessou programa principal
18/03/2020;15:41:34:60;127.0.0.1;Acessou programa principal
18/03/2020;15:41:37:70;127.0.0.1;Acessou programa principal
18/03/2020;15:41:40:00;127.0.0.1;Acessou programa principal
18/03/2020;15:42:05:71;127.0.0.1;Acessou programa principal
18/03/2020;15:42:38:39;127.0.0.1;Acessou programa principal
18/03/2020;15:42:43:43;127.0.0.1;Acessou programa principal
18/03/2020;15:42:45:54;127.0.0.1;Acessou programa principal
18/03/2020;15:42:54:23;127.0.0.1;Acessou programa principal
18/03/2020;15:43:10:41;127.0.0.1;Acessou programa principal
18/03/2020;15:43:21:13;127.0.0.1;Acessou programa principal
18/03/2020;15:43:29:96;127.0.0.1;Acessou programa principal
18/03/2020;15:43:46:76;127.0.0.1;Acessou programa principal
18/03/2020;15:45:21:88;127.0.0.1;Acessou programa principal
18/03/2020;15:45:25:10;127.0.0.1;Acessou programa principal
18/03/2020;15:45:26:97;127.0.0.1;Acessou programa principal
18/03/2020;15:45:33:78;127.0.0.1;Acessou programa principal
18/03/2020;15:45:43:28;127.0.0.1;Acessou programa principal
18/03/2020;15:47:47:19;127.0.0.1;Acessou programa principal
18/03/2020;15:48:14:10;127.0.0.1;Acessou programa principal
18/03/2020;15:48:34:70;127.0.0.1;Acessou programa principal
18/03/2020;16:27:22:92;127.0.0.1;Acessou programa principal
18/03/2020;16:27:39:06;127.0.0.1;Acessou programa principal
18/03/2020;16:27:42:54;127.0.0.1;Acessou programa principal
18/03/2020;16:27:44:86;127.0.0.1;Acessou programa principal
18/03/2020;16:27:47:24;127.0.0.1;Acessou programa principal
18/03/2020;16:27:59:44;127.0.0.1;Acessou programa principal
18/03/2020;16:28:03:40;127.0.0.1;Acessou programa principal
18/03/2020;16:28:13:01;127.0.0.1;Acessou programa principal
18/03/2020;16:28:16:63;127.0.0.1;Acessou programa principal
18/03/2020;16:28:25:39;127.0.0.1;Acessou programa principal
18/03/2020;16:28:32:69;127.0.0.1;Acessou programa principal
18/03/2020;16:28:36:14;127.0.0.1;Acessou programa principal
18/03/2020;16:28:40:52;127.0.0.1;Acessou programa principal
18/03/2020;16:28:42:22;127.0.0.1;Acessou programa principal
18/03/2020;16:28:43:83;127.0.0.1;Acessou programa principal
18/03/2020;16:28:45:39;127.0.0.1;Acessou programa principal
18/03/2020;16:28:46:45;127.0.0.1;Acessou programa principal
18/03/2020;16:28:47:72;127.0.0.1;Acessou programa principal
18/03/2020;16:33:11:66;127.0.0.1;Acessou programa principal
18/03/2020;16:33:17:61;127.0.0.1;Acessou programa principal
18/03/2020;16:33:19:24;127.0.0.1;Acessou programa principal
18/03/2020;16:33:23:98;127.0.0.1;Acessou programa principal
18/03/2020;16:33:32:65;127.0.0.1;Acessou programa principal
18/03/2020;16:36:08:09;127.0.0.1;Acessou programa principal
18/03/2020;16:36:18:82;127.0.0.1;Acessou programa principal
18/03/2020;16:36:19:56;127.0.0.1;Acessou programa principal
18/03/2020;16:36:21:23;127.0.0.1;Acessou programa principal
18/03/2020;16:36:29:01;127.0.0.1;Acessou programa principal
18/03/2020;16:36:34:33;127.0.0.1;Acessou programa principal
18/03/2020;16:37:32:37;127.0.0.1;Acessou programa principal
18/03/2020;16:37:42:30;127.0.0.1;Acessou programa principal
18/03/2020;16:37:47:91;127.0.0.1;Acessou programa principal
18/03/2020;16:37:54:80;127.0.0.1;Acessou programa principal
18/03/2020;16:37:59:24;127.0.0.1;Acessou programa principal
18/03/2020;16:38:43:16;127.0.0.1;Acessou programa principal
18/03/2020;16:41:44:41;127.0.0.1;Acessou programa principal
18/03/2020;16:41:47:60;127.0.0.1;Acessou programa principal
18/03/2020;16:41:49:20;127.0.0.1;Acessou programa principal
18/03/2020;16:41:52:39;127.0.0.1;Acessou programa principal
18/03/2020;16:41:57:02;127.0.0.1;Acessou programa principal
18/03/2020;16:42:52:55;127.0.0.1;Acessou programa principal
18/03/2020;16:44:29:71;127.0.0.1;Acessou programa principal
18/03/2020;16:44:32:79;127.0.0.1;Acessou programa principal
18/03/2020;16:44:35:08;127.0.0.1;Acessou programa principal
18/03/2020;16:44:36:97;127.0.0.1;Acessou programa principal
18/03/2020;16:44:47:50;127.0.0.1;Acessou programa principal
18/03/2020;16:44:53:97;127.0.0.1;Acessou programa principal
18/03/2020;16:47:14:30;127.0.0.1;Acessou programa principal
18/03/2020;16:47:18:63;127.0.0.1;Acessou programa principal
18/03/2020;16:47:22:54;127.0.0.1;Acessou programa principal
18/03/2020;16:47:45:15;127.0.0.1;Acessou programa principal
18/03/2020;16:48:27:16;127.0.0.1;Acessou programa principal
18/03/2020;16:52:44:43;127.0.0.1;Acessou programa principal
18/03/2020;16:52:51:84;127.0.0.1;Acessou programa principal
18/03/2020;16:52:53:55;127.0.0.1;Acessou programa principal
18/03/2020;16:55:35:45;127.0.0.1;Acessou programa principal
18/03/2020;16:55:38:43;127.0.0.1;Acessou programa principal
18/03/2020;16:55:39:74;127.0.0.1;Acessou programa principal
18/03/2020;16:56:51:45;127.0.0.1;Acessou programa principal
18/03/2020;16:56:54:86;127.0.0.1;Acessou programa principal
18/03/2020;16:56:56:73;127.0.0.1;Acessou programa principal
18/03/2020;16:57:59:24;127.0.0.1;Acessou programa principal
18/03/2020;16:58:02:29;127.0.0.1;Acessou programa principal
18/03/2020;16:58:04:45;127.0.0.1;Acessou programa principal
18/03/2020;16:59:49:30;127.0.0.1;Acessou programa principal
18/03/2020;17:00:09:21;127.0.0.1;Acessou programa principal
18/03/2020;17:00:11:44;127.0.0.1;Acessou programa principal
18/03/2020;17:00:14:60;127.0.0.1;Acessou programa principal
18/03/2020;17:00:24:44;127.0.0.1;Acessou programa principal
18/03/2020;17:00:48:89;127.0.0.1;Acessou programa principal
18/03/2020;17:01:00:41;127.0.0.1;Acessou programa principal
18/03/2020;17:01:37:03;127.0.0.1;Acessou programa principal
18/03/2020;17:01:46:29;127.0.0.1;Acessou programa principal
18/03/2020;17:01:53:14;127.0.0.1;Acessou programa principal
18/03/2020;17:02:00:25;127.0.0.1;Acessou programa principal
18/03/2020;17:07:07:03;127.0.0.1;Acessou programa principal
18/03/2020;17:07:10:18;127.0.0.1;Acessou programa principal
18/03/2020;17:07:11:61;127.0.0.1;Acessou programa principal
18/03/2020;17:07:13:28;127.0.0.1;Acessou programa principal
18/03/2020;17:07:21:34;127.0.0.1;Acessou programa principal
18/03/2020;17:08:26:73;127.0.0.1;Acessou programa principal
18/03/2020;17:08:29:73;127.0.0.1;Acessou programa principal
18/03/2020;17:08:31:30;127.0.0.1;Acessou programa principal
18/03/2020;17:08:33:69;127.0.0.1;Acessou programa principal
18/03/2020;17:08:41:00;127.0.0.1;Acessou programa principal
18/03/2020;17:09:16:62;127.0.0.1;Acessou programa principal
18/03/2020;17:09:24:58;127.0.0.1;Acessou programa principal
18/03/2020;17:10:27:46;127.0.0.1;Acessou programa principal
18/03/2020;17:10:30:34;127.0.0.1;Acessou programa principal
18/03/2020;17:10:32:06;127.0.0.1;Acessou programa principal
18/03/2020;17:10:33:75;127.0.0.1;Acessou programa principal
18/03/2020;17:10:39:76;127.0.0.1;Acessou programa principal
18/03/2020;17:11:02:59;127.0.0.1;Acessou programa principal
18/03/2020;17:11:10:34;127.0.0.1;Acessou programa principal
18/03/2020;17:11:51:74;127.0.0.1;Acessou programa principal
18/03/2020;17:11:54:59;127.0.0.1;Acessou programa principal
18/03/2020;17:11:56:08;127.0.0.1;Acessou programa principal
18/03/2020;17:11:57:75;127.0.0.1;Acessou programa principal
18/03/2020;17:12:01:72;127.0.0.1;Acessou programa principal
18/03/2020;17:14:56:04;127.0.0.1;Acessou programa principal
18/03/2020;17:14:59:46;127.0.0.1;Acessou programa principal
18/03/2020;17:15:01:37;127.0.0.1;Acessou programa principal
18/03/2020;17:15:06:01;127.0.0.1;Acessou programa principal
18/03/2020;17:15:17:39;127.0.0.1;Acessou programa principal
18/03/2020;17:15:39:80;127.0.0.1;Acessou programa principal
18/03/2020;17:15:46:48;127.0.0.1;Acessou programa principal
18/03/2020;17:16:58:35;127.0.0.1;Acessou programa principal
18/03/2020;17:17:01:46;127.0.0.1;Acessou programa principal
18/03/2020;17:17:17:81;127.0.0.1;Acessou programa principal
18/03/2020;17:17:22:16;127.0.0.1;Acessou programa principal
18/03/2020;17:17:28:97;127.0.0.1;Acessou programa principal
18/03/2020;17:17:42:19;127.0.0.1;Acessou programa principal
18/03/2020;17:18:00:31;127.0.0.1;Acessou programa principal
18/03/2020;17:18:32:20;127.0.0.1;Acessou programa principal
18/03/2020;17:18:40:82;127.0.0.1;Acessou programa principal
18/03/2020;17:29:47:52;127.0.0.1;Acessou programa principal
18/03/2020;17:29:52:15;127.0.0.1;Acessou programa principal
18/03/2020;17:29:53:48;127.0.0.1;Acessou programa principal
18/03/2020;17:34:16:95;127.0.0.1;Acessou programa principal
18/03/2020;17:34:21:93;127.0.0.1;Acessou programa principal
18/03/2020;17:34:23:61;127.0.0.1;Acessou programa principal
18/03/2020;17:34:53:91;127.0.0.1;Acessou programa principal
18/03/2020;17:35:16:66;127.0.0.1;Acessou programa principal
18/03/2020;17:36:03:75;127.0.0.1;Acessou programa principal
18/03/2020;17:36:20:47;127.0.0.1;Acessou programa principal
18/03/2020;17:37:17:00;127.0.0.1;Acessou programa principal
18/03/2020;17:37:32:13;127.0.0.1;Acessou programa principal
18/03/2020;17:37:39:11;127.0.0.1;Acessou programa principal
18/03/2020;17:37:45:47;127.0.0.1;Acessou programa principal
18/03/2020;17:37:57:66;127.0.0.1;Acessou programa principal
18/03/2020;17:38:39:67;127.0.0.1;Acessou programa principal
18/03/2020;17:38:46:32;127.0.0.1;Acessou programa principal
18/03/2020;17:38:57:56;127.0.0.1;Acessou programa principal
18/03/2020;17:39:23:86;127.0.0.1;Acessou programa principal
18/03/2020;17:39:33:25;127.0.0.1;Acessou programa principal
18/03/2020;17:39:59:73;127.0.0.1;Acessou programa principal
18/03/2020;17:40:05:34;127.0.0.1;Acessou programa principal
18/03/2020;17:40:07:49;127.0.0.1;Acessou programa principal
18/03/2020;17:40:39:35;127.0.0.1;Acessou programa principal
18/03/2020;17:41:22:27;127.0.0.1;Acessou programa principal
18/03/2020;17:42:20:34;127.0.0.1;Acessou programa principal
18/03/2020;17:42:34:21;127.0.0.1;Acessou programa principal
18/03/2020;17:43:17:34;127.0.0.1;Acessou programa principal
18/03/2020;17:43:42:56;127.0.0.1;Acessou programa principal
18/03/2020;17:47:07:50;127.0.0.1;Acessou programa principal
18/03/2020;17:47:26:63;127.0.0.1;Acessou programa principal
18/03/2020;17:47:29:60;127.0.0.1;Acessou programa principal
18/03/2020;17:47:35:03;127.0.0.1;Acessou programa principal
18/03/2020;17:48:13:23;127.0.0.1;Acessou programa principal
18/03/2020;17:49:41:53;127.0.0.1;Acessou programa principal
18/03/2020;17:50:21:62;127.0.0.1;Acessou programa principal
18/03/2020;17:52:03:80;127.0.0.1;Acessou programa principal
18/03/2020;17:52:32:35;127.0.0.1;Acessou programa principal
18/03/2020;17:53:11:86;127.0.0.1;Acessou programa principal
18/03/2020;17:53:46:62;127.0.0.1;Acessou programa principal
18/03/2020;21:04:01:88;127.0.0.1;Acessou programa principal
18/03/2020;21:04:14:52;127.0.0.1;Acessou programa principal
18/03/2020;21:04:29:38;127.0.0.1;Acessou programa principal
18/03/2020;21:04:45:89;127.0.0.1;Acessou programa principal
18/03/2020;21:04:52:39;127.0.0.1;Acessou programa principal
18/03/2020;21:06:20:62;127.0.0.1;Acessou programa principal
